ApplicationMgr                         INFO Application Manager Finalized successfully
ApplicationMgr                         INFO Application Manager Terminated successfully
CloneKillerMatch_ab47e101              INFO Number of counters : 2
 |    Counter                                      |     #     |    sum     | mean/eff^* | rms/err^*  |     min     |     max     |
 | "nTracksInput"                                  |      5000 |       6625 |     1.3250 |
 | "nTracksSelected"                               |      5000 |       6625 |     1.3250 |
DefaultGECFilter                       INFO Number of counters : 1
 |    Counter                                      |     #     |    sum     | mean/eff^* | rms/err^*  |     min     |     max     |
 | "Nb Events Processed"                           |      5000 |
HLTControlFlowMgr                      INFO Number of counters : 1
 |    Counter                                      |     #     |    sum     | mean/eff^* | rms/err^*  |     min     |     max     |
 | "Processed events"                              |      5000 |
MDFIOAlg                               INFO Number of counters : 2
 |    Counter                                      |     #     |    sum     | mean/eff^* | rms/err^*  |     min     |     max     |
 | "#banks in raw event"                           |      5000 |    3115051 |     623.01 |    0.10048 |      623.00 |      624.00 |
 | "event size statistics (KBytes)"                |      5195 |      90694 |     17.458 |     5.8559 |      8.0000 |      41.000 |
PrForwardTrackingVelo_5399212b         INFO Number of counters : 11
 |    Counter                                      |     #     |    sum     | mean/eff^* | rms/err^*  |     min     |     max     |
 | "Accepted input tracks"                         |      4249 |      78761 |     18.536 |
 | "Created long tracks"                           |      4249 |        807 |    0.18993 |
 | "Empty input tracks"                            |       751 |
 | "Input tracks"                                  |      4249 |      80387 |     18.919 |
 | "Number of candidate bins per track"            |     78761 |      16661 |    0.21154 |     1.1503 |      0.0000 |      33.000 |
 | "Number of complete candidates/track 1st Loop"  |      6966 |        528 |   0.075797 |    0.26521 |      0.0000 |      2.0000 |
 | "Number of complete candidates/track 2nd Loop"  |      6672 |        285 |   0.042716 |    0.20222 |      0.0000 |      1.0000 |
 | "Number of x candidates per track 1st Loop"     |      6966 |       1922 |    0.27591 |    0.58226 |
 | "Number of x candidates per track 2nd Loop"     |      6672 |       7182 |     1.0764 |     1.7162 |
 | "Percentage second loop execution"              |      6966 |       6672 |    0.95780 |
 | "Removed duplicates"                            |      4249 |          5 |  0.0011767 |
PrHybridSeeding_46e539c7               INFO Number of counters : 21
 |    Counter                                      |     #     |    sum     | mean/eff^* | rms/err^*  |     min     |     max     |
 | "Created T2x1 three-hit combinations in case 0" |    839904 |     489688 |    0.58303 |    0.53512 |      0.0000 |      4.0000 |
 | "Created T2x1 three-hit combinations in case 1" |    453557 |     269621 |    0.59446 |    0.52867 |      0.0000 |      4.0000 |
 | "Created T2x1 three-hit combinations in case 2" |    404799 |     232043 |    0.57323 |    0.53456 |      0.0000 |      4.0000 |
 | "Created XZ tracks (part 0)"                    |     15000 |     125297 |     8.3531 |     11.663 |      0.0000 |      281.00 |
 | "Created XZ tracks (part 1)"                    |     15000 |     113516 |     7.5677 |     10.547 |      0.0000 |      197.00 |
 | "Created XZ tracks in case 0"                   |     10000 |     103690 |     10.369 |     13.254 |      0.0000 |      281.00 |
 | "Created XZ tracks in case 1"                   |     10000 |      79570 |     7.9570 |     10.921 |      0.0000 |      268.00 |
 | "Created XZ tracks in case 2"                   |     10000 |      55553 |     5.5553 |     8.0547 |      0.0000 |      190.00 |
 | "Created full hit combinations in case 0"       |    131806 |     131806 |     1.0000 |     0.0000 |      1.0000 |      1.0000 |
 | "Created full hit combinations in case 1"       |     83852 |      83852 |     1.0000 |     0.0000 |      1.0000 |      1.0000 |
 | "Created full hit combinations in case 2"       |     62678 |      62678 |     1.0000 |     0.0000 |      1.0000 |      1.0000 |
 | "Created seed tracks"                           |     10000 |     104019 |     10.402 |     9.3786 |      0.0000 |      89.000 |
 | "Created seed tracks (part 0)"                  |      5000 |      73630 |     14.726 |     13.468 |      0.0000 |      119.00 |
 | "Created seed tracks (part 1)"                  |      5000 |      69624 |     13.925 |     12.655 |      0.0000 |      101.00 |
 | "Created seed tracks in case 0"                 |     10000 |      65385 |     6.5385 |     6.0523 |      0.0000 |      48.000 |
 | "Created seed tracks in case 1"                 |     10000 |     109340 |     10.934 |     9.8980 |      0.0000 |      83.000 |
 | "Created seed tracks in case 2"                 |     10000 |     139413 |     13.941 |     12.665 |      0.0000 |      116.00 |
 | "Created seed tracks in recovery step"          |      5000 |       3841 |    0.76820 |     1.2911 |      0.0000 |      13.000 |
 | "Created two-hit combinations in case 0"        |    655644 |    5037751 |     7.6837 |     7.3882 |      0.0000 |      69.000 |
 | "Created two-hit combinations in case 1"        |    636592 |    2870938 |     4.5099 |     4.4220 |      0.0000 |      56.000 |
 | "Created two-hit combinations in case 2"        |    597846 |    2861591 |     4.7865 |     4.8325 |      0.0000 |      96.000 |
PrKalmanFilterForward_9d8f7cf7         INFO Number of counters : 6
 |    Counter                                      |     #     |    sum     | mean/eff^* | rms/err^*  |     min     |     max     |
 | "Pre outlier chi2 cut"                          |        67 |
 | "chi2 cut"                                      |        56 |
 | "nIterations"                                   |       807 |       1894 |     2.3470 |
 | "nOutlierIterations"                            |       740 |        367 |    0.49595 |
 | "nTracksInput"                                  |      5000 |        807 |    0.16140 |
 | "nTracksOutput"                                 |      5000 |        684 |    0.13680 |
PrKalmanFilterMatch_a719d5c1           INFO Number of counters : 6
 |    Counter                                      |     #     |    sum     | mean/eff^* | rms/err^*  |     min     |     max     |
 | "Pre outlier chi2 cut"                          |        35 |
 | "chi2 cut"                                      |       301 |
 | "nIterations"                                   |      6625 |      13447 |     2.0297 |
 | "nOutlierIterations"                            |      6590 |       2569 |    0.38983 |
 | "nTracksInput"                                  |      5000 |       6625 |     1.3250 |
 | "nTracksOutput"                                 |      5000 |       6289 |     1.2578 |
PrMatchNN_959da4d3                     INFO Number of counters : 3
 |    Counter                                      |     #     |    sum     | mean/eff^* | rms/err^*  |     min     |     max     |
 | "#MatchingChi2"                                 |      4185 |   32959.79 |     7.8757 |
 | "#MatchingMLP"                                  |     11296 |   10704.02 |    0.94759 |
 | "#MatchingTracks"                               |      4185 |       6625 |     1.5830 |
PrResidualSciFiHits_f6ac1107           INFO Number of counters : 1
 |    Counter                                      |     #     |    sum     | mean/eff^* | rms/err^*  |     min     |     max     |
 | "Empty Long tracks"                             |      2329 |
PrStoreSciFiHits_fb0eba02              INFO Number of counters : 25
 |    Counter                                      |     #     |    sum     | mean/eff^* | rms/err^*  |     min     |     max     |
 | "Average X in T1U"                              |    567219 |-6.883843e+07 |    -121.36 |     1147.9 |     -2656.2 |      2657.0 |
 | "Average X in T1V"                              |    662511 |-1.072452e+08 |    -161.88 |     1156.2 |     -2657.0 |      2656.6 |
 | "Average X in T1X1"                             |    655644 |-2.659714e+07 |    -40.566 |     1111.0 |     -2646.6 |      2647.0 |
 | "Average X in T1X2"                             |    674054 |-2.018099e+07 |    -29.940 |     1056.0 |     -2647.0 |      2647.1 |
 | "Average X in T2U"                              |    650380 |   -2076269 |    -3.1924 |     1087.5 |     -2655.5 |      2656.9 |
 | "Average X in T2V"                              |    688360 |   -9227259 |    -13.405 |     1099.3 |     -2655.3 |      2656.5 |
 | "Average X in T2X1"                             |    619546 |   -2221895 |    -3.5863 |     1094.1 |     -2645.8 |      2646.6 |
 | "Average X in T2X2"                             |    638858 |   -7666129 |    -12.000 |     1086.6 |     -2645.4 |      2646.9 |
 | "Average X in T3U"                              |    716639 |    3331021 |     4.6481 |     1263.5 |     -3187.5 |      3190.1 |
 | "Average X in T3V"                              |    745929 |-5.115745e+07 |    -68.582 |     1214.9 |     -3189.3 |      3189.7 |
 | "Average X in T3X1"                             |    687399 |-2.080339e+07 |    -30.264 |     1265.4 |     -3176.8 |      3177.5 |
 | "Average X in T3X2"                             |    781921 |1.320058e+07 |     16.882 |     1252.4 |     -3177.2 |      3178.4 |
 | "Hits in T1U"                                   |     20000 |     567219 |     28.361 |     25.476 |      0.0000 |      197.00 |
 | "Hits in T1V"                                   |     20000 |     662511 |     33.126 |     25.213 |      0.0000 |      210.00 |
 | "Hits in T1X1"                                  |     20000 |     655644 |     32.782 |     25.596 |      0.0000 |      167.00 |
 | "Hits in T1X2"                                  |     20000 |     674054 |     33.703 |     25.550 |      0.0000 |      181.00 |
 | "Hits in T2U"                                   |     20000 |     650380 |     32.519 |     25.338 |      0.0000 |      237.00 |
 | "Hits in T2V"                                   |     20000 |     688360 |     34.418 |     27.364 |      0.0000 |      197.00 |
 | "Hits in T2X1"                                  |     20000 |     619546 |     30.977 |     24.361 |      0.0000 |      176.00 |
 | "Hits in T2X2"                                  |     20000 |     638858 |     31.943 |     25.766 |      0.0000 |      184.00 |
 | "Hits in T3U"                                   |     20000 |     716639 |     35.832 |     27.345 |      0.0000 |      192.00 |
 | "Hits in T3V"                                   |     20000 |     745929 |     37.296 |     27.487 |      0.0000 |      185.00 |
 | "Hits in T3X1"                                  |     20000 |     687399 |     34.370 |     26.663 |      0.0000 |      193.00 |
 | "Hits in T3X2"                                  |     20000 |     781921 |     39.096 |     30.309 |      0.0000 |      210.00 |
 | "Total number of hits"                          |      5000 |    8088460 |     1617.7 |     1178.8 |      35.000 |      7487.0 |
PrStoreUTHitClusters_69298ec0          INFO Number of counters : 3
 |    Counter                                      |     #     |    sum     | mean/eff^* | rms/err^*  |     min     |     max     |
 | "# RawBank::UT banks"                           |      5000 |          0 |     0.0000 |
 | "# RawBank::UTError banks"                      |      5000 |          0 |     0.0000 |
 |*"Non-unique UT clusters in event"               |      5000 |          0 |( 0.000000 +- 0.000000)% |
PrVPHitsToVPLightClusters_8cd36c45     INFO Number of counters : 1
 |    Counter                                      |     #     |    sum     | mean/eff^* | rms/err^*  |     min     |     max     |
 | "Nb of Produced Clusters"                       |      5000 |     997893 |     199.58 |
TBTCMatch_e6402d48                     INFO Number of counters : 3
 |    Counter                                      |     #     |    sum     | mean/eff^* | rms/err^*  |     min     |     max     |
 |*"BadInput"                                      |      6217 |          0 |( 0.000000 +- 0.000000)% |
 |*"FitFailed"                                     |      6217 |          0 |( 0.000000 +- 0.000000)% |
 | "FittedBefore"                                  |      6217 |
TBTC_Forward_c95b0b3d                  INFO Number of counters : 3
 |    Counter                                      |     #     |    sum     | mean/eff^* | rms/err^*  |     min     |     max     |
 |*"BadInput"                                      |       684 |          0 |( 0.000000 +- 0.000000)% |
 |*"FitFailed"                                     |       684 |          0 |( 0.000000 +- 0.000000)% |
 | "FittedBefore"                                  |       684 |
UTHitClustersToPrUTHitsConverter...    INFO Number of counters : 1
 |    Counter                                      |     #     |    sum     | mean/eff^* | rms/err^*  |     min     |     max     |
 | "# Converted Clusters"                          |      5000 |          0 |     0.0000 |
VPLightClustersToVPMicroClusters...    INFO Number of counters : 1
 |    Counter                                      |     #     |    sum     | mean/eff^* | rms/err^*  |     min     |     max     |
 | "# Converted Clusters"                          |      5000 |     997893 |     199.58 |
VeloRetinaClusterTrackingSIMD_66...    INFO Number of counters : 2
 |    Counter                                      |     #     |    sum     | mean/eff^* | rms/err^*  |     min     |     max     |
 | "Nb of Produced Clusters"                       |      5000 |     997893 |     199.58 |
 | "Nb of Produced Tracks"                         |      5000 |     105043 |     21.009 |
