p00s00  -0.7178571428571429  0.04400000000000001
p00s01  -0.7001428571428572  -0.15400000000000003
p00s02  -0.7095714285714286  0.029142857142857137
p00s03  -0.7682857142857142  0.08628571428571429
p01s04  -2.0435714285714286  0.9968571428571429
p01s05  -0.7265714285714286  -0.043857142857142865
p01s06  -0.7641428571428572  -0.0902857142857143
p01s07  -0.6975714285714285  -0.025857142857142856
p02s12  -0.768  0.08471428571428571
p02s13  -0.6767142857142858  0.03557142857142857
p02s14  -0.6457142857142858  -0.1352857142857143
p02s15  -0.6334285714285715  0.03657142857142857
p03s08  -0.7457142857142858  -0.031142857142857146
p03s09  -0.7624285714285715  -0.07414285714285714
p03s10  -0.6385714285714287  -0.041999999999999996
p03s11  -0.6671428571428573  -0.011285714285714288
