p00s00  -0.00929833333333  1.8544
p01s01  -0.0521366666667  1.87349333333
p02s02  -0.0912846666667  1.88784283333
p03s03  -0.0127633333333  1.79780933333
p04s00  -0.05009  1.82725333333
p04s01  -0.0295433333333  1.82188
p05s01  -0.0731066666667  1.90899833333
p05s06  -0.0190566666667  1.832638
p06s02  -0.0343133333333  1.70094
p06s06  -0.0695276666667  1.87746333333
p06s07  0.0502233333333  1.79560166667
p07s03  -0.146813333333  1.68644866667
p07s07  0.00713333333333  1.85768933333
p08s04  0.0326  1.89167366667
p08s08  0.00395666666667  1.84163
p09s05  0.0826466666667  1.79445066667
p09s09  0.0115816666667  1.85108466667
p10s06  0.0100666666667  1.830655
p11s07  -0.00549333333333  1.82335
p11s11  0.0284733333333  1.81030666667
p12s08  0.01894  1.85057366667
p12s09  0.00867666666667  1.84549
p13s09  0.0100766666667  1.83150433333
p13s10  0.00399666666667  1.82837133333
p14s10  0.0526933333333  1.86083
p14s11  -0.00487  1.80571266667
p15s11  0.0676133333333  1.76295333333
p16s08  -0.01676  1.84165666667
p16s12  -0.0169466666667  1.83956
p17s09  0.00227333333333  1.834091
p17s13  0.0144036666667  1.82319333333
p18s10  0.0159666666667  1.84813666667
p18s14  0.01088  1.82115666667
p19s11  -0.0198733333333  1.88982666667
p19s15  0.00947333333333  1.83459833333
p20s16  -0.0379333333333  1.87526
p20s17  -0.0144866666667  1.87902266667
p21s14  0.00497  1.840507
p21s17  -0.0502966666667  1.90041087667
p21s18  0.00823  1.833948
p22s15  0.157857333333  1.91489666667
p22s19  -0.0471166666667  1.81047133333
p23s15  0.00633333333333  1.89236666667
p24s16  -0.07945  1.8385323
p25s17  0.03775  1.77785
p26s18  -0.0414066666667  1.852264
p27s19  0.0603966666667  1.804098
p28s20  0.0264973333333  1.83888633333
p29s21  -0.0234866666667  1.80034133333
p30s22  -0.0337516666667  1.86795366667
p31s23  -0.100336666667  1.84704333333
p32s20  -0.110653333333  2.12209133333
p32s24  -0.00709666666667  1.74828666667
p33s21  0.143553966667  1.85813
p33s24  -0.0773433333333  1.83447966667
p34s21  0.0650933333333  1.86162
p34s22  -0.02612  1.89883666667
p34s25  0.161896666667  1.86492866667
p35s22  0.0157453333333  1.86987933333
p35s23  0.00395333333333  1.80673866667
p36s24  0.01546  1.77091583333
p36s28  -0.01079  1.83276366667
p37s25  -0.0335933333333  1.83384333333
p38s26  -0.0206603333333  1.83369433333
p38s30  -0.018083  1.82037666667
p39s27  -0.021919  1.85955453333
p39s31  -0.00191666666667  1.872801
p40s28  -0.0206566666667  1.74900233333
p41s28  0.00624  1.82201766667
p41s29  0.00058  1.86165473333
p42s29  0.00017  1.83397733333
p42s30  -0.0207266666667  1.83468740867
p43s30  -0.00512  1.84043533333
p43s31  0.00126666666667  1.86154266667
p44s28  0.0449433333333  1.820385
p44s32  0.0009  1.795044
p45s33  0.0386666666667  1.851982
p46s30  -0.0140133333333  1.8152
p46s34  0.0317336666667  1.83468366667
p47s31  -0.0130303333333  1.822773
p47s35  0.00359  1.84534833333
p48s32  0.013857  1.84748
p49s32  -0.0316  2.02403
p49s33  -0.0279926666667  1.76552333333
p49s36  -0.0118333333333  1.64780333333
p50s33  -0.0592666666667  1.80118
p50s37  0.0498433333333  1.89131533333
p50s38  0.058  1.86632333333
p51s38  0.0213883333333  1.86617
p51s39  0.0171156666667  1.85434133333
p52s36  -0.0879266666667  1.862611
p53s37  -0.0505766666667  1.81687066667
p54s38  -0.0299914666667  1.78591666667
p55s39  0.02336  1.85217333333
