0000  -1.19043433333  -0.110278863333
0101  -1.10590066667  -0.108126
0202  -1.02777766667  -0.0887086666667
0303  -0.863647666667  -0.0524953333333
0400  -1.251616  -0.065144
0404  -1.3187525  -0.08118
0501  -1.126478  -0.057864
0505  -1.11885  -0.0639756666667
0602  -0.998680666667  -0.0321103333333
0603  -0.86242  -0.0459693333333
0606  -0.9839536  -0.0823083333333
0707  -0.860784333333  -0.11386
0804  -1.24719156667  -0.0103933333333
0808  -1.27153733333  -0.0799668333333
0905  -1.152533  -0.01768409
0909  -1.19534333333  -0.059015
1006  -1.00571633333  -0.018177
1010  -1.01620433333  -0.0546966666667
1107  -0.859321333333  -0.0269079666667
1111  -0.874343333333  -0.0813417333333
1208  -1.25301366667  -0.000508066666667
1209  -1.33032366667  0.00488033333333
1309  -1.15514533333  0.004809
1310  -1.01468066667  0.0487334666667
1410  -0.998593  0.0201528666667
1411  -0.842367666667  -0.00544333333333
1511  -0.850494666667  -0.0128013333333
1608  -1.24280766667  0.0518544666667
1612  -1.25648333333  -0.01057
1709  -1.11096266667  0.056475
1713  -1.08394266667  0.0369961666667
1810  -1.00674833333  0.028709
1814  -1.0256355  0.03809
1911  -0.838010666667  0.0440166666667
1915  -0.865600266667  0.0459733333333
2012  -1.28087866667  0.0968776666667
2016  -1.29516666667  0.0597893333333
2113  -1.11786366667  0.066841
2117  -1.13769066667  0.083025
2214  -0.964007333333  0.122383333333
2218  -0.994559633333  0.0438861333333
2219  -0.867688333333  0.0164566666667
2315  -0.833963333333  0.0795933333333
2416  -1.336799  0.127959766667
2517  -1.150417  0.117367333333
2618  -1.00371333333  0.0630143666667
2719  -0.883655333333  0.0296266666667
2820  -0.843184666667  0.067329
2921  -0.967250333333  0.0638773666667
3022  -1.13534  0.0516882
3123  -1.21619833333  0.0718926666667
3224  -0.862893666667  0.04624
3320  -0.847403333333  0.0646176666667
3321  -0.976426333333  0.10972
3325  -0.984171  0.02909
3422  -1.120312  0.09412658
3426  -1.1359  0.0799206666667
3523  -1.25077933333  0.1082684
3527  -1.262922  0.0861988333333
3624  -0.848669  0.0252053333333
3628  -0.892334  -0.008582
3725  -0.979694666667  0.0253627166667
3729  -1.00740733333  0.0105483333333
3826  -1.114316  0.0416498333333
3830  -1.07961933333  0.0186471533333
3927  -1.214347  0.045956
3931  -1.232999  0.030164
4028  -0.907792  0.002111
4128  -0.845923  -0.003716
4129  -1.02409466667  -0.0103373333333
4229  -0.975172  0.00333066666667
4230  -1.14346  -0.009206
4330  -1.10212233333  -0.0175612666667
4331  -1.25588366667  -0.00961566666667
4428  -0.827424333333  -0.0178996666667
4432  -0.852079333333  -0.0559733333333
4529  -1.02884833333  -0.004829
4533  -1.01418633333  -0.0409166833333
4630  -1.11977833333  -0.0283233333333
4634  -1.116333  -0.06108655
4731  -1.26350766667  -0.0179232666667
4735  -1.24309133333  -0.0508262333333
4832  -0.880328666667  -0.0284536666667
4933  -1.00987666667  -0.05803
4936  -0.831280333333  -0.105932
4937  -0.993098666667  -0.100719333333
5034  -1.13746066667  -0.0717975333333
5038  -1.13180266667  -0.104539
5135  -1.252026  -0.090076
5139  -1.27076633333  -0.122645766667
5236  -0.863694  -0.0713193333333
5337  -0.985034333333  -0.0783433333333
5438  -1.08210466667  -0.0959379333333
5539  -1.38018666667  -0.160881866667
