0000  -0.0393733333333  0.66626553
0101  0.0656923333333  0.680347333333
0202  0.0649306666667  0.657673
0303  0.0804053333333  0.624834666667
0400  0.1021318  0.674014
0404  0.0119380666667  0.691609333333
0501  0.122840333333  0.661208333333
0505  -0.00461333333333  0.651448
0602  0.0838186666667  0.629164666667
0603  0.101416  0.634884666667
0606  -0.0293764  0.646961666667
0707  -0.00488066666667  0.619966666667
0804  0.0615686666667  0.660827666667
0808  -0.0784456666667  0.710466666667
0905  0.102024  0.646559823333
0909  0.0295958666667  0.668626
1006  0.0624633333333  0.623066666667
1010  -0.0349533333333  0.637105
1107  0.0488676333333  0.6073493
1111  0.01423  0.626782
1208  -0.00155266666667  0.6678094
1209  0.0694633333333  0.654961333333
1309  0.0414753333333  0.636352
1310  0.0437236666667  0.579250666667
1410  0.0228746666667  0.616103666667
1411  0.00778466666667  0.581097
1511  -0.00829533333333  0.591071333333
1608  0.035709  0.657509666667
1612  -0.0781836666667  0.709314333333
1709  0.0720027466667  0.615554
1713  -0.104589  0.6402715
1810  0.078013  0.624577666667
1814  -0.0367758333333  0.620732666667
1911  0.0439915466667  0.575858
1915  -0.0381300666667  0.579276666667
2012  -0.0201903333333  0.681343666667
2016  -0.0919443333333  0.716677333333
2113  -0.00975466666667  0.664493666667
2117  -0.0840021666667  0.656011
2214  -0.0131343333333  0.578810666667
2218  -0.115580033333  0.671008666667
2219  -0.0607246666667  0.657463333333
2315  0.0281346666667  0.516006666667
2416  -0.0368656666667  0.6852379
2517  -0.0372813433333  0.659106333333
2618  -0.0499633333333  0.663862966667
2719  -0.041254  0.648443333333
2820  -0.084061  0.620723333333
2921  -0.0828653333333  0.672796666667
3022  -0.08333  0.739096333333
3123  0.026206  0.763064333333
3224  0.0443736666667  0.55148
3320  -0.11415  0.615606
3321  -0.0856636666667  0.622677
3325  0.0297713333333  0.650626666667
3422  -0.112041333333  0.645776666667
3426  0.013475  0.650601333333
3523  -0.0995493333333  0.6720236
3527  0.009199  0.674973666667
3624  -0.0511453333333  0.599224333333
3628  0.0547946666667  0.609515
3725  -0.0758653333333  0.629290283333
3729  0.0425896666667  0.623022666667
3826  -0.0751456666667  0.642283666667
3830  0.0187123333333  0.64110858
3927  -0.096132  0.660043666667
3931  0.0283113333333  0.656025666667
4028  0.0467466666667  0.621783
4128  -0.0324176666667  0.583235666667
4129  0.0286116666667  0.631893333333
4229  -0.00629366666667  0.614519333333
4230  0.0290316666667  0.645157333333
4330  -0.0267126666667  0.6587936
4331  0.028766  0.670588333333
4428  -0.0511563333333  0.586541
4432  0.033298  0.62436
4529  -0.0304266666667  0.598522333333
4533  0.077328  0.63519535
4630  -0.038526  0.636423333333
4634  0.0680743333333  0.674169216667
4731  -0.0521423333333  0.647495
4735  0.0633003333333  0.685357333333
4832  -0.00825066666667  0.557514333333
4933  -0.00857333333333  0.636312333333
4936  0.0454743333333  0.686842666667
4937  0.0880876666667  0.705520666667
5034  0.013683  0.663356866667
5038  0.116201666667  0.687679
5135  0.011599  0.680350666667
5139  0.120737333333  0.716568333333
5236  0.0668559333333  0.618239333333
5337  0.0228096666667  0.653131
5438  0.0207896666667  0.670426266667
5539  0.107676666667  0.704983866667
