0000  -0.0648758  0.428127333333
0001  0.0785333333333  0.497320933333
0002  -0.0334716666667  0.834684666667
0003  0.0211696666667  1.08796476667
0104  0.04331  0.796547666667
0105  -0.08843  0.7624882
0106  0.172721833333  1.60108333333
0107  0.230306266667  1.11784833333
0212  0.0196016666667  0.782416666667
0213  -0.2214  0.986166666667
0214  -0.0295666666667  0.54215
0215  -0.149702  0.659026333333
0308  0.211267333333  1.03551333333
0309  0.118006  1.16693333333
0310  0.152463333333  0.758506
0311  0.385683333333  1.06041666667
