0000  -0.513487866667  0.277728333333
0001  -0.575408933333  -0.0561446
0002  -0.660828  0.24619
0003  -0.671647666667  -0.01425
0104  -0.475853666667  0.0192363333333
0105  -0.357866666667  -0.289848533333
0106  -0.847876333333  -0.30954
0107  -0.691094666667  -0.233283333333
0212  -0.70081  0.179486666667
0213  -0.449526666667  0.11971
0214  -0.4552  -0.10229
0215  -0.430206  0.0889102666667
0308  -0.723274  -0.118633333333
0309  -0.737836666667  -0.306016666667
0310  -0.60008  -0.255445333333
0311  -0.802816  -0.339316666667
