0.6088008392146641,-25.0,0.015307473698095602
0.6144676376151236,-24.15,0.01607099708075285
0.6078774360443456,-23.299999999999997,0.016410100432674525
0.610370826533976,-22.449999999999996,0.016043620212414404
0.6151562221418272,-21.599999999999994,0.01604200348782532
0.6092780111863966,-20.749999999999993,0.017175520948313226
0.6096740633862022,-19.89999999999999,0.008494094674565758
0.6113479308363118,-19.04999999999999,0.006751047999276576
0.612930433786453,-18.19999999999999,0.015854462088445563
0.6107851971791093,-17.349999999999987,0.016017926052165826
0.6135748993528671,-16.499999999999986,0.016505148053221567
0.6118935649328052,-15.649999999999986,0.013773083021365144
0.6085562158706742,-14.799999999999986,0.015016244115342954
0.6096402432377014,-13.949999999999987,0.016009134709595522
0.6151405518101679,-13.099999999999987,0.015534568502946966
0.6138112443927278,-12.249999999999988,0.015485502539751754
0.6157516690016464,-11.399999999999988,0.015383763855579501
0.6145739360976269,-10.549999999999988,0.015453311516958713
0.6127964436907708,-9.699999999999989,0.015260547814305704
0.6082739123764385,-8.849999999999989,0.01489934977380036
0.6124497111074113,-7.999999999999989,0.015372805762411009
0.6097461723089135,-7.14999999999999,0.015386082135863016
0.6103450600281852,-6.29999999999999,0.0145454714407736
0.6086884142644194,-5.44999999999999,0.014454480166736831
0.6174652001679082,-4.599999999999991,0.015370381784479675
0.6080242068473338,-3.7499999999999907,0.013556259221733457
0.6195154200453477,-2.8999999999999906,0.015586138655142875
0.6186094179662612,-2.0499999999999905,0.01538859221406325
0.6091370751816322,-1.1999999999999904,0.014777307310520727
0.6098971801314664,-0.34999999999999043,0.014700636917008214
0.6098131112788294,0.5000000000000095,0.014629930482660081
0.6217382339784628,1.3500000000000094,0.015354999146493022
0.6130640738617384,2.2000000000000095,0.014538190977039293
0.6138418286782195,3.0500000000000096,0.014763817369106536
0.614281219626106,3.9000000000000097,0.01365392753760973
0.6272781625885511,4.75000000000001,0.015695274849772286
0.6162467857485511,5.600000000000009,0.013685136845265063
0.6166064886101627,6.450000000000009,0.014954017902943246
0.6323278560579959,7.300000000000009,0.015988547958935086
0.63146524956689,8.15000000000001,0.015952938680843708
0.6192117918596934,9.000000000000009,0.014597804497631092
0.6340338224268518,9.850000000000009,0.015989019558880994
0.6357292426474118,10.700000000000008,0.016294169214689683
0.6337928792823619,11.550000000000008,0.0160371659296507
0.6188390796975659,12.400000000000007,0.015003896670938177
0.6177500222847149,13.250000000000007,0.014467345118927609
0.6332948162379098,14.100000000000007,0.01610331130738937
0.6148469578186602,14.950000000000006,0.014665840379204901
0.6145861140867587,15.800000000000006,0.014343120177877313
0.6169952600827412,16.650000000000006,0.014891942899236905
0.6380977237157562,17.500000000000007,0.01666194291760205
0.6375434606025968,18.35000000000001,0.016372338685904382
0.6382670051304947,19.20000000000001,0.016493534505543795
0.6189854940927405,20.05000000000001,0.015016659439801733
0.6361442575437255,20.900000000000013,0.01651852775036116
0.6193144471241656,21.750000000000014,0.015272769286620164
0.6424267997378682,22.600000000000016,0.016852724467274944
0.6435848988418772,23.450000000000017,0.016997170110593658
0.6238210108541249,24.30000000000002,0.015427235453508558
0.6211756780746712,25.15000000000002,0.015686402632755298
0.6426841095776085,26.00000000000002,0.017061099985480357
