0.6124094454383195,-25.0,0.013684882967366297
0.6075997276514078,-24.15,0.014166574732836551
0.6061597499611309,-23.299999999999997,0.013450655494738433
0.6059104976707044,-22.449999999999996,0.013428380317977495
0.6031083464975734,-21.599999999999994,0.013823069868271667
0.6001271464305309,-20.749999999999993,0.01308326562687344
0.5977526694254651,-19.89999999999999,0.013983870016331019
0.5969715594675212,-19.04999999999999,0.013205345263407699
0.5978672389525582,-18.19999999999999,0.013212884534245692
0.5955067316315771,-17.349999999999987,0.01293784920087775
0.5923457557051132,-16.499999999999986,0.01270964412851834
0.6056723169762274,-15.649999999999986,0.01352282518910295
0.5895762805959093,-14.799999999999986,0.012764519927212824
0.5906434287822832,-13.949999999999987,0.012610502549857893
0.5871972209478381,-13.099999999999987,0.01271691196589732
0.5973355054529683,-12.249999999999988,0.013115521786174937
0.5974308732956264,-11.399999999999988,0.013131399085988713
0.5843151067923724,-10.549999999999988,0.011893976772029849
0.5847072278615281,-9.699999999999989,0.012828667163887243
0.5965321399730142,-8.849999999999989,0.012931632660755643
0.5845373625847703,-7.999999999999989,0.012132758576857016
0.5944462944478085,-7.14999999999999,0.012896242502949101
0.5840915299991839,-6.29999999999999,0.012494660791240324
0.5835706985170389,-5.44999999999999,0.012036666211288074
0.5841364622611178,-4.599999999999991,0.01219473628056512
0.5848605865798592,-3.7499999999999907,0.012145823638257038
0.5839340801041661,-2.8999999999999906,0.01172876097847824
0.5844104811119974,-2.0499999999999905,0.012074536666595779
0.5842541429941467,-1.1999999999999904,0.012641199828332606
0.5839905413784341,-0.34999999999999043,0.012347679749937172
0.5831821817896012,0.5000000000000095,0.01154828058222325
0.5827336799979782,1.3500000000000094,0.012030942504961055
0.5933368924077016,2.2000000000000095,0.012640693550877196
0.5799863230829445,3.0500000000000096,0.011897096657314947
0.5818766225939315,3.9000000000000097,0.013026937972590162
0.582867462750372,4.75000000000001,0.01236310090573523
0.5832789285150581,5.600000000000009,0.012497687189809644
0.5843652544217321,6.450000000000009,0.012172535373003723
0.5847499153214085,7.300000000000009,0.012578438586029483
0.5943412818539664,8.15000000000001,0.012740822462201993
0.5960325646493876,9.000000000000009,0.012693595512930476
0.5885668333360167,9.850000000000009,0.012155606164466813
0.5888757038897591,10.700000000000008,0.011695108493998338
0.5897504270327733,11.550000000000008,0.012150904630868925
0.5916536117233334,12.400000000000007,0.012273693320826562
0.5937869082294733,13.250000000000007,0.012457087631001633
0.6049513580894119,14.100000000000007,0.01308878298991358
0.5954011628642101,14.950000000000006,0.012425111959950821
0.6080011598995014,15.800000000000006,0.013374383406884877
0.6010985366598781,16.650000000000006,0.012977555386461169
0.603872306233038,17.500000000000007,0.012724145289730883
0.6054472138166885,18.35000000000001,0.012921723702704363
0.6057526619111494,19.20000000000001,0.012980574461680395
0.6070732886098632,20.05000000000001,0.012629566910424208
0.6093149176299619,20.900000000000013,0.012921064646445312
0.611550106641679,21.750000000000014,0.012458021042633268
0.6125296528130286,22.600000000000016,0.013361045238844191
0.6278345081305049,23.450000000000017,0.014328355167882108
0.6307375799996154,24.30000000000002,0.01440038250745412
0.633670484669523,25.15000000000002,0.014657119223190133
0.6266506751033785,26.00000000000002,0.014060168290207526
