p00s00  -0.05357142857142856  0.7255714285714286
p00s01  -0.024571428571428574  0.7044285714285714
p00s02  -0.08257142857142859  1.0405714285714287
p00s03  -0.008142857142857144  1.0425714285714287
p01s04  0.014142857142857143  0.7025714285714286
p01s05  0.060000000000000005  0.7177142857142857
p01s06  0.009142857142857144  1.0458571428571428
p01s07  0.07857142857142857  1.0367142857142857
p02s12  -0.0011428571428571434  1.0415714285714286
p02s13  -0.07385714285714286  1.0334285714285714
p02s14  -0.023142857142857142  0.7064285714285714
p02s15  -0.05242857142857143  0.7228571428571429
p03s08  0.062000000000000006  1.0285714285714287
p03s09  0.001285714285714283  1.0514285714285714
p03s10  0.04971428571428571  0.7165714285714286
p03s11  0.016142857142857143  0.706857142857143
