p00s00  -0.052857142857142866  1.991
p00s01  -0.0031428571428571426  2.006714285714286
p00s02  -0.05457142857142857  1.9828571428571429
p00s03  0.004428571428571432  2.028714285714286
p01s04  0.000857142857142857  2.0155714285714286
p01s05  0.05942857142857143  1.9875714285714288
p01s06  0.000142857142857142  2.0317142857142856
p01s07  0.05057142857142857  1.98
p02s12  0.029857142857142856  2.017857142857143
p02s13  -0.03842857142857142  1.9732857142857143
p02s14  -0.01685714285714286  2.0232857142857146
p02s15  -0.047714285714285716  2.000571428571429
p03s08  0.02642857142857143  1.959714285714286
p03s09  -0.03  2.0387142857142857
p03s10  0.04185714285714286  1.9974285714285713
p03s11  -0.005571428571428573  2.0300000000000002
