0000  -0.0557142857143  0.607142857143
0001  -0.0425714285714  0.604714285714
0002  -0.144142857143  1.01057142857
0003  -0.0122857142857  0.982714285714
0104  0.0504285714286  0.608
0105  0.0578571428571  0.601857142857
0106  0.0255714285714  0.997714285714
0107  0.139285714286  1.00928571429
0212  -0.00885714285714  0.992142857143
0213  -0.109571428571  1.03128571429
0214  -0.0445714285714  0.610428571429
0215  -0.0565714285714  0.597
0308  0.129  1.01942857143
0309  0.0178571428571  0.996285714286
0310  0.0534285714286  0.6
0311  0.0437142857143  0.616285714286
