0000    1.878   0
0001    1.878   0
0002    1.878   0
0003    1.877   0
0104    1.878   0
0105    1.878   0
0106    1.878   0
0107    1.878   0
0212    1.878   0
0213    1.878   0
0214    1.878   0
0215    1.878   0
0308    1.878   0
0309    1.878   0
0310    1.878   0
0311    1.878   0
