0000  -0.0246666666667  1.89133333333
0101  -0.00333333333333  1.88833333333
0202  -0.00566666666667  1.85933333333
0303  -0.01  1.86333333333
0400  -0.00566666666667  1.87866666667
0404  0.02  1.877
0501  -0.008  1.877
0505  0.0146666666667  1.86666666667
0602  0.011  1.86133333333
0603  -0.0293333333333  1.85166666667
0606  -0.000666666666667  1.88333333333
0707  -0.009  1.882
0804  0.0113333333333  1.891
0808  0.0493333333333  1.91733333333
0905  0.0156666666667  1.87
0909  0.0323333333333  1.85333333333
1006  -0.002  1.86933333333
1010  0.0233333333333  1.856
1107  -0.00533333333333  1.85866666667
1111  0.00466666666667  1.82333333333
1208  0.0113333333333  1.91166666667
1209  0.01  1.89
1309  0.008  1.86666666667
1310  -0.006  1.862
1410  0.0133333333333  1.85066666667
1411  -0.0266666666667  1.84833333333
1511  -0.023  1.88366666667
1608  -0.0123333333333  1.89533333333
1612  -0.003  1.887
1709  -0.0183333333333  1.867
1713  -0.007  1.873
1810  -0.0306666666667  1.85933333333
1814  0.006  1.86366666667
1911  -0.026  1.82566666667
1915  0.00766666666667  1.84966666667
2012  -0.014  1.90333333333
2016  0.00233333333333  1.867
2113  -0.009  1.88366666667
2117  0.0133333333333  1.89333333333
2214  0.029  1.87033333333
2218  0.0223333333333  1.88433333333
2219  0.028  1.844
2315  -0.014  1.87166666667
2416  -0.021  1.85966666667
2517  -0.00666666666667  1.85333333333
2618  0.0106666666667  1.85066666667
2719  0.00666666666667  1.83866666667
2820  0.0103333333333  1.85566666667
2921  -0.00466666666667  1.85966666667
3022  0.016  1.86666666667
3123  -0.0293333333333  1.86766666667
3224  0.01  1.88066666667
3320  0.0306666666667  1.84866666667
3321  -0.00833333333333  1.873
3325  -0.00466666666667  1.87466666667
3422  0.00266666666667  1.86733333333
3426  -0.009  1.869
3523  0.00266666666667  1.89866666667
3527  -0.0243333333333  1.87966666667
3624  0.0176666666667  1.839
3628  0.00466666666667  1.82333333333
3725  0.00633333333333  1.866
3729  -0.013  1.85233333333
3826  -0.0173333333333  1.872
3830  -0.0406666666667  1.86566666667
3927  -0.00866666666667  1.88533333333
3931  -0.0546666666667  1.91166666667
4028  0.00566666666667  1.78933333333
4128  0.015  1.83233333333
4129  -0.0126666666667  1.86633333333
4229  -0.00366666666667  1.85666666667
4230  -0.004  1.86366666667
4330  -0.008  1.876
4331  -0.005  1.90333333333
4428  0.00966666666667  1.837
4432  -0.008  1.84066666667
4529  0.034  1.857
4533  0.00266666666667  1.85766666667
4630  0.0296666666667  1.86766666667
4634  -0.002  1.868
4731  0.0153333333333  1.90166666667
4735  0.0123333333333  1.88433333333
4832  -0.006  1.87
4933  -0.0346666666667  1.87166666667
4936  -0.0313333333333  1.84933333333
4937  -0.028  1.88766666667
5034  0.016  1.87133333333
5038  -0.009  1.865
5135  0.0243333333333  1.87733333333
5139  -0.0236666666667  1.862
5236  -0.012  1.83866666667
5337  -0.016  1.86033333333
5438  0.00566666666667  1.87333333333
5539  -0.028  1.853
